<?xml version="1.0" encoding="windows-1252"?>
<!-- Generator: Adobe Illustrator 19.1.0, SVG Export Plug-In . SVG Version: 6.00 Build 0)  -->
<svg xmlns="http://www.w3.org/2000/svg" xmlns:xlink="http://www.w3.org/1999/xlink" version="1.1" id="Capa_1" x="0px" y="0px" viewBox="0 0 482 482" style="enable-background:new 0 0 482 482;" xml:space="preserve" width="24px" height="24px">
<g>
	<g>
		<polygon points="279.8,244.8 258.2,257.3 258.2,482 452.7,369.7 452.7,145   " fill="#FFFFFF"/>
		<polygon points="315,43.3 240.2,0 40.3,115.4 115.2,158.7   " fill="#FFFFFF"/>
		<polygon points="440,115.4 353.8,66.3 154,181.7 165.4,187.6 240.2,230.8 314.6,187.9   " fill="#FFFFFF"/>
		<polygon points="138.9,264.3 103.1,245.9 103.1,188.7 29.3,146.2 29.3,369.3 222.4,480.8 222.4,257.7 138.9,209.6   " fill="#FFFFFF"/>
	</g>
</g>
<g>
</g>
<g>
</g>
<g>
</g>
<g>
</g>
<g>
</g>
<g>
</g>
<g>
</g>
<g>
</g>
<g>
</g>
<g>
</g>
<g>
</g>
<g>
</g>
<g>
</g>
<g>
</g>
<g>
</g>
</svg>